…
To the gapminder dataset, add an area variable using the areas tibble. Be sure to preserve all the rows of the original gapminder dataset.

left_join(gapminder, areas)

## Joining, by = "country"

## Warning: Column `country` joining factors with different levels, coercing
## to character vector

## # A tibble: 1,704 x 7
##    country     continent  year lifeExp      pop gdpPercap  area
##    <chr>       <fct>     <int>   <dbl>    <int>     <dbl> <dbl>
##  1 Afghanistan Asia       1952    28.8  8425333      779.    NA
##  2 Afghanistan Asia       1957    30.3  9240934      821.    NA
##  3 Afghanistan Asia       1962    32.0 10267083      853.    NA
##  4 Afghanistan Asia       1967    34.0 11537966      836.    NA
##  5 Afghanistan Asia       1972    36.1 13079460      740.    NA
##  6 Afghanistan Asia       1977    38.4 14880372      786.    NA
##  7 Afghanistan Asia       1982    39.9 12881816      978.    NA
##  8 Afghanistan Asia       1987    40.8 13867957      852.    NA
##  9 Afghanistan Asia       1992    41.7 16317921      649.    NA
## 10 Afghanistan Asia       1997    41.8 22227415      635.    NA
## # … with 1,694 more rows

To the gapminder dataset, add an area variable using the areas tibble, but only keeping obervations for which areas are available.

inner_join(gapminder, areas)

## Joining, by = "country"

## Warning: Column `country` joining factors with different levels, coercing
## to character vector

## # A tibble: 36 x 7
##    country continent  year lifeExp      pop gdpPercap      area
##    <chr>   <fct>     <int>   <dbl>    <int>     <dbl>     <dbl>
##  1 Canada  Americas   1952    68.8 14785584    11367. 998500000
##  2 Canada  Americas   1957    70.0 17010154    12490. 998500000
##  3 Canada  Americas   1962    71.3 18985849    13462. 998500000
##  4 Canada  Americas   1967    72.1 20819767    16077. 998500000
##  5 Canada  Americas   1972    72.9 22284500    18971. 998500000
##  6 Canada  Americas   1977    74.2 23796400    22091. 998500000
##  7 Canada  Americas   1982    75.8 25201900    22899. 998500000
##  8 Canada  Americas   1987    76.9 26549700    26627. 998500000
##  9 Canada  Americas   1992    78.0 28523502    26343. 998500000
## 10 Canada  Americas   1997    78.6 30305843    28955. 998500000
## # … with 26 more rows
…
Construct a tibble that joins gapminder and areas, so that all rows found in each original tibble are also found in the final tibble.

full_join(areas, gapminder)

## Joining, by = "country"

## Warning: Column `country` joining factors with different levels, coercing
## to character vector

## # A tibble: 1,705 x 7
##    country      area continent  year lifeExp      pop gdpPercap
##    <chr>       <dbl> <fct>     <int>   <dbl>    <int>     <dbl>
##  1 Canada  998500000 Americas   1952    68.8 14785584    11367.
##  2 Canada  998500000 Americas   1957    70.0 17010154    12490.
##  3 Canada  998500000 Americas   1962    71.3 18985849    13462.
##  4 Canada  998500000 Americas   1967    72.1 20819767    16077.
##  5 Canada  998500000 Americas   1972    72.9 22284500    18971.
##  6 Canada  998500000 Americas   1977    74.2 23796400    22091.
##  7 Canada  998500000 Americas   1982    75.8 25201900    22899.
##  8 Canada  998500000 Americas   1987    76.9 26549700    26627.
##  9 Canada  998500000 Americas   1992    78.0 28523502    26343.
## 10 Canada  998500000 Americas   1997    78.6 30305843    28955.
## # … with 1,695 more rows

full_join(gapminder, areas)

## Joining, by = "country"

## Warning: Column `country` joining factors with different levels, coercing
## to character vector

## # A tibble: 1,705 x 7
##    country     continent  year lifeExp      pop gdpPercap  area
##    <chr>       <fct>     <int>   <dbl>    <int>     <dbl> <dbl>
##  1 Afghanistan Asia       1952    28.8  8425333      779.    NA
##  2 Afghanistan Asia       1957    30.3  9240934      821.    NA
##  3 Afghanistan Asia       1962    32.0 10267083      853.    NA
##  4 Afghanistan Asia       1967    34.0 11537966      836.    NA
##  5 Afghanistan Asia       1972    36.1 13079460      740.    NA
##  6 Afghanistan Asia       1977    38.4 14880372      786.    NA
##  7 Afghanistan Asia       1982    39.9 12881816      978.    NA
##  8 Afghanistan Asia       1987    40.8 13867957      852.    NA
##  9 Afghanistan Asia       1992    41.7 16317921      649.    NA
## 10 Afghanistan Asia       1997    41.8 22227415      635.    NA
## # … with 1,695 more rows
…
## # A tibble: 1 x 7
##   country       area continent  year lifeExp   pop gdpPercap
##   <chr>        <dbl> <fct>     <int>   <dbl> <int>     <dbl>
## 1 Vatican City    44 <NA>         NA      NA    NA        NA

Subset the gapminder dataset to have countries that are only found in the areas data frame.

semi_join(gapminder, areas)

## Joining, by = "country"

## Warning: Column `country` joining factors with different levels, coercing
## to character vector

## # A tibble: 36 x 6
##    country continent  year lifeExp      pop gdpPercap
##    <fct>   <fct>     <int>   <dbl>    <int>     <dbl>
##  1 Canada  Americas   1952    68.8 14785584    11367.
##  2 Canada  Americas   1957    70.0 17010154    12490.
##  3 Canada  Americas   1962    71.3 18985849    13462.
##  4 Canada  Americas   1967    72.1 20819767    16077.
##  5 Canada  Americas   1972    72.9 22284500    18971.
##  6 Canada  Americas   1977    74.2 23796400    22091.
##  7 Canada  Americas   1982    75.8 25201900    22899.
##  8 Canada  Americas   1987    76.9 26549700    26627.
##  9 Canada  Americas   1992    78.0 28523502    26343.
## 10 Canada  Americas   1997    78.6 30305843    28955.
## # … with 26 more rows

Subset the gapminder dataset to have countries that are not found in the areas data frame.

anti_join(gapminder, areas)

## Joining, by = "country"

## Warning: Column `country` joining factors with different levels, coercing
## to character vector

## # A tibble: 1,668 x 6
##    country     continent  year lifeExp      pop gdpPercap
##    <fct>       <fct>     <int>   <dbl>    <int>     <dbl>
##  1 Afghanistan Asia       1952    28.8  8425333      779.
##  2 Afghanistan Asia       1957    30.3  9240934      821.
##  3 Afghanistan Asia       1962    32.0 10267083      853.
##  4 Afghanistan Asia       1967    34.0 11537966      836.
##  5 Afghanistan Asia       1972    36.1 13079460      740.
##  6 Afghanistan Asia       1977    38.4 14880372      786.
##  7 Afghanistan Asia       1982    39.9 12881816      978.
##  8 Afghanistan Asia       1987    40.8 13867957      852.
##  9 Afghanistan Asia       1992    41.7 16317921      649.
## 10 Afghanistan Asia       1997    41.8 22227415      635.
## # … with 1,658 more rows
…
