…
#filter(gapminder, country=="Canada" & year < 1980) # same as...
filter(gapminder, country=="Canada", year < 1970)

## # A tibble: 4 x 6
##   country continent  year lifeExp      pop gdpPercap
##   <fct>   <fct>     <int>   <dbl>    <int>     <dbl>
## 1 Canada  Americas   1952    68.8 14785584    11367.
## 2 Canada  Americas   1957    70.0 17010154    12490.
## 3 Canada  Americas   1962    71.3 18985849    13462.
## 4 Canada  Americas   1967    72.1 20819767    16077.

filter(gapminder, country=="Canada" | year == 1952)

## # A tibble: 153 x 6
##    country     continent  year lifeExp      pop gdpPercap
##    <fct>       <fct>     <int>   <dbl>    <int>     <dbl>
##  1 Afghanistan Asia       1952    28.8  8425333      779.
##  2 Albania     Europe     1952    55.2  1282697     1601.
##  3 Algeria     Africa     1952    43.1  9279525     2449.
##  4 Angola      Africa     1952    30.0  4232095     3521.
##  5 Argentina   Americas   1952    62.5 17876956     5911.
##  6 Australia   Oceania    1952    69.1  8691212    10040.
##  7 Austria     Europe     1952    66.8  6927772     6137.
##  8 Bahrain     Asia       1952    50.9   120447     9867.
##  9 Bangladesh  Asia       1952    37.5 46886859      684.
## 10 Belgium     Europe     1952    68    8730405     8343.
## # … with 143 more rows
…
Why is this a terrible idea?

It is not self-documenting. What is so special about rows 241 through 252?

It is fragile. This line of code will produce different results if someone changes the row order of gapminder, e.g. sorts the data earlier in the script.

Exercises: Let’s try some exercises using the gapminder data set.

Find all entries of Canada and Algeria.

filter(gapminder, 
       country == "Canada" |
           country == "Algeria")

## # A tibble: 24 x 6
##    country continent  year lifeExp      pop gdpPercap
##    <fct>   <fct>     <int>   <dbl>    <int>     <dbl>
##  1 Algeria Africa     1952    43.1  9279525     2449.
##  2 Algeria Africa     1957    45.7 10270856     3014.
##  3 Algeria Africa     1962    48.3 11000948     2551.
##  4 Algeria Africa     1967    51.4 12760499     3247.
##  5 Algeria Africa     1972    54.5 14760787     4183.
##  6 Algeria Africa     1977    58.0 17152804     4910.
##  7 Algeria Africa     1982    61.4 20033753     5745.
##  8 Algeria Africa     1987    65.8 23254956     5681.
##  9 Algeria Africa     1992    67.7 26298373     5023.
## 10 Algeria Africa     1997    69.2 29072015     4797.
## # … with 14 more rows

filter(gapminder,
       country %in% c("Canada", "Algeria"))

## # A tibble: 24 x 6
##    country continent  year lifeExp      pop gdpPercap
##    <fct>   <fct>     <int>   <dbl>    <int>     <dbl>
##  1 Algeria Africa     1952    43.1  9279525     2449.
##  2 Algeria Africa     1957    45.7 10270856     3014.
##  3 Algeria Africa     1962    48.3 11000948     2551.
##  4 Algeria Africa     1967    51.4 12760499     3247.
##  5 Algeria Africa     1972    54.5 14760787     4183.
##  6 Algeria Africa     1977    58.0 17152804     4910.
##  7 Algeria Africa     1982    61.4 20033753     5745.
##  8 Algeria Africa     1987    65.8 23254956     5681.
##  9 Algeria Africa     1992    67.7 26298373     5023.
## 10 Algeria Africa     1997    69.2 29072015     4797.
## # … with 14 more rows
…
Find all entries not including European countries.

filter(gapminder, 
       continent != "Europe")

## # A tibble: 1,344 x 6
##    country     continent  year lifeExp      pop gdpPercap
##    <fct>       <fct>     <int>   <dbl>    <int>     <dbl>
##  1 Afghanistan Asia       1952    28.8  8425333      779.
##  2 Afghanistan Asia       1957    30.3  9240934      821.
##  3 Afghanistan Asia       1962    32.0 10267083      853.
##  4 Afghanistan Asia       1967    34.0 11537966      836.
##  5 Afghanistan Asia       1972    36.1 13079460      740.
##  6 Afghanistan Asia       1977    38.4 14880372      786.
##  7 Afghanistan Asia       1982    39.9 12881816      978.
##  8 Afghanistan Asia       1987    40.8 13867957      852.
##  9 Afghanistan Asia       1992    41.7 16317921      649.
## 10 Afghanistan Asia       1997    41.8 22227415      635.
## # … with 1,334 more rows

select

select subsets data by columns/variable names.

select(gapminder, continent, country)

## # A tibble: 1,704 x 2
##    continent country    
##    <fct>     <fct>      
##  1 Asia      Afghanistan
##  2 Asia      Afghanistan
##  3 Asia      Afghanistan
##  4 Asia      Afghanistan
##  5 Asia      Afghanistan
##  6 Asia      Afghanistan
##  7 Asia      Afghanistan
##  8 Asia      Afghanistan
##  9 Asia      Afghanistan
## 10 Asia      Afghanistan
## # … with 1,694 more rows
…
start with the gapminder data, then

take all entries of Canada and Algeria occuring in the ’60s (filter), then

select the country, year, and gdpPercap columns.

Exercise: Take all countries in Europe that have a GPD per capita greater than 10000, and select all variables except gdpPercap. (Hint: use -).

gapminder %>% 
    filter(continent == "Europe",
           gdpPercap > 10000) %>% 
    select(-gdpPercap)

## # A tibble: 214 x 5
##    country continent  year lifeExp     pop
##    <fct>   <fct>     <int>   <dbl>   <int>
##  1 Austria Europe     1962    69.5 7129864
##  2 Austria Europe     1967    70.1 7376998
##  3 Austria Europe     1972    70.6 7544201
##  4 Austria Europe     1977    72.2 7568430
##  5 Austria Europe     1982    73.2 7574613
##  6 Austria Europe     1987    74.9 7578903
##  7 Austria Europe     1992    76.0 7914969
##  8 Austria Europe     1997    77.5 8069876
##  9 Austria Europe     2002    79.0 8148312
## 10 Austria Europe     2007    79.8 8199783
## # … with 204 more rows

arrange

arrange sorts a data frame by shuffling the order of the rows appropriately. Use desc to sort by descending order.

Order gapminder by population, then life expectancy:

arrange(gapminder, pop, lifeExp)

## # A tibble: 1,704 x 6
##    country               continent  year lifeExp   pop gdpPercap
##    <fct>                 <fct>     <int>   <dbl> <int>     <dbl>
##  1 Sao Tome and Principe Africa     1952    46.5 60011      880.
##  2 Sao Tome and Principe Africa     1957    48.9 61325      861.
##  3 Djibouti              Africa     1952    34.8 63149     2670.
##  4 Sao Tome and Principe Africa     1962    51.9 65345     1072.
##  5 Sao Tome and Principe Africa     1967    54.4 70787     1385.
##  6 Djibouti              Africa     1957    37.3 71851     2865.
##  7 Sao Tome and Principe Africa     1972    56.5 76595     1533.
##  8 Sao Tome and Principe Africa     1977    58.6 86796     1738.
##  9 Djibouti              Africa     1962    39.7 89898     3021.
## 10 Sao Tome and Principe Africa     1982    60.4 98593     1890.
## # … with 1,694 more rows

Exercises:

Order the data frame by year, then descending by life expectancy.

arrange(gapminder, year, desc(lifeExp))

## # A tibble: 1,704 x 6
##    country        continent  year lifeExp      pop gdpPercap
##    <fct>          <fct>     <int>   <dbl>    <int>     <dbl>
##  1 Norway         Europe     1952    72.7  3327728    10095.
##  2 Iceland        Europe     1952    72.5   147962     7268.
##  3 Netherlands    Europe     1952    72.1 10381988     8942.
##  4 Sweden         Europe     1952    71.9  7124673     8528.
##  5 Denmark        Europe     1952    70.8  4334000     9692.
##  6 Switzerland    Europe     1952    69.6  4815000    14734.
##  7 New Zealand    Oceania    1952    69.4  1994794    10557.
##  8 United Kingdom Europe     1952    69.2 50430000     9980.
##  9 Australia      Oceania    1952    69.1  8691212    10040.
## 10 Canada         Americas   1952    68.8 14785584    11367.
## # … with 1,694 more rows

In addition to the above exercise, rearrange the variables so that year comes first, followed by life expectancy. (Hint: check the documentation for the select function for a related handy function).

gapminder %>% 
    arrange(year, desc(lifeExp)) %>% 
    select(year, lifeExp, everything())

## # A tibble: 1,704 x 6
##     year lifeExp country        continent      pop gdpPercap
##    <int>   <dbl> <fct>          <fct>        <int>     <dbl>
##  1  1952    72.7 Norway         Europe     3327728    10095.
##  2  1952    72.5 Iceland        Europe      147962     7268.
##  3  1952    72.1 Netherlands    Europe    10381988     8942.
##  4  1952    71.9 Sweden         Europe     7124673     8528.
##  5  1952    70.8 Denmark        Europe     4334000     9692.
##  6  1952    69.6 Switzerland    Europe     4815000    14734.
##  7  1952    69.4 New Zealand    Oceania    1994794    10557.
##  8  1952    69.2 United Kingdom Europe    50430000     9980.
##  9  1952    69.1 Australia      Oceania    8691212    10040.
## 10  1952    68.8 Canada         Americas  14785584    11367.
## # … with 1,694 more rows

mutate

mutate creates a new variable by calculating from other variables. Let’s get GDP by multiplying GPD per capita with population:

mutate(gapminder, gdp = gdpPercap * pop)

## # A tibble: 1,704 x 7
##    country     continent  year lifeExp      pop gdpPercap          gdp
##    <fct>       <fct>     <int>   <dbl>    <int>     <dbl>        <dbl>
##  1 Afghanistan Asia       1952    28.8  8425333      779.  6567086330.
##  2 Afghanistan Asia       1957    30.3  9240934      821.  7585448670.
##  3 Afghanistan Asia       1962    32.0 10267083      853.  8758855797.
##  4 Afghanistan Asia       1967    34.0 11537966      836.  9648014150.
##  5 Afghanistan Asia       1972    36.1 13079460      740.  9678553274.
##  6 Afghanistan Asia       1977    38.4 14880372      786. 11697659231.
##  7 Afghanistan Asia       1982    39.9 12881816      978. 12598563401.
##  8 Afghanistan Asia       1987    40.8 13867957      852. 11820990309.
##  9 Afghanistan Asia       1992    41.7 16317921      649. 10595901589.
## 10 Afghanistan Asia       1997    41.8 22227415      635. 14121995875.
## # … with 1,694 more rows

You can define multiple new variables – even back-dependent on new ones! Let’s also create a column for GDP in billions, rounded to one decimal:

mutate(gapminder, 
       gdp     = gdpPercap * pop, 
       gdpBill = round(gdp/1000000000, 1))

## # A tibble: 1,704 x 8
##    country    continent  year lifeExp      pop gdpPercap        gdp gdpBill
##    <fct>      <fct>     <int>   <dbl>    <int>     <dbl>      <dbl>   <dbl>
##  1 Afghanist… Asia       1952    28.8  8425333      779.    6.57e 9     6.6
##  2 Afghanist… Asia       1957    30.3  9240934      821.    7.59e 9     7.6
##  3 Afghanist… Asia       1962    32.0 10267083      853.    8.76e 9     8.8
##  4 Afghanist… Asia       1967    34.0 11537966      836.    9.65e 9     9.6
##  5 Afghanist… Asia       1972    36.1 13079460      740.    9.68e 9     9.7
##  6 Afghanist… Asia       1977    38.4 14880372      786.    1.17e10    11.7
##  7 Afghanist… Asia       1982    39.9 12881816      978.    1.26e10    12.6
##  8 Afghanist… Asia       1987    40.8 13867957      852.    1.18e10    11.8
##  9 Afghanist… Asia       1992    41.7 16317921      649.    1.06e10    10.6
## 10 Afghanist… Asia       1997    41.8 22227415      635.    1.41e10    14.1
## # … with 1,694 more rows

transmute works the same way, but drops all other variables.

Exercise: Make a new column called cc that pastes the country name followed by the continent, separated by a comma. (Hint: use the paste function with the sep=", " argument).

mutate(gapminder, cc = paste(country, continent, sep=", "))

## # A tibble: 1,704 x 7
##    country     continent  year lifeExp      pop gdpPercap cc               
##    <fct>       <fct>     <int>   <dbl>    <int>     <dbl> <chr>            
##  1 Afghanistan Asia       1952    28.8  8425333      779. Afghanistan, Asia
##  2 Afghanistan Asia       1957    30.3  9240934      821. Afghanistan, Asia
##  3 Afghanistan Asia       1962    32.0 10267083      853. Afghanistan, Asia
##  4 Afghanistan Asia       1967    34.0 11537966      836. Afghanistan, Asia
##  5 Afghanistan Asia       1972    36.1 13079460      740. Afghanistan, Asia
##  6 Afghanistan Asia       1977    38.4 14880372      786. Afghanistan, Asia
##  7 Afghanistan Asia       1982    39.9 12881816      978. Afghanistan, Asia
##  8 Afghanistan Asia       1987    40.8 13867957      852. Afghanistan, Asia
##  9 Afghanistan Asia       1992    41.7 16317921      649. Afghanistan, Asia
## 10 Afghanistan Asia       1997    41.8 22227415      635. Afghanistan, Asia
## # … with 1,694 more rows
…
summarize(gapminder, mean_pop=mean(pop), sd_pop=sd(pop))

## # A tibble: 1 x 2
##    mean_pop     sd_pop
##       <dbl>      <dbl>
## 1 29601212. 106157897.

Not very useful by itself! But, with the group_by function, the summarize function is very useful:

gapminder %>% 
    group_by(country) %>% 
    summarize(mean_pop=mean(pop), sd_pop=sd(pop))

## # A tibble: 142 x 3
##    country      mean_pop    sd_pop
##    <fct>           <dbl>     <dbl>
##  1 Afghanistan 15823715.  7114583.
##  2 Albania      2580249.   828586.
##  3 Algeria     19875406.  8613355.
##  4 Angola       7309390.  2672281.
##  5 Argentina   28602240.  7546609.
##  6 Australia   14649312.  3915203.
##  7 Austria      7583298.   437660.
##  8 Bahrain       373913.   210893.
##  9 Bangladesh  90755395. 34711661.
## 10 Belgium      9725119.   520636.
## # … with 132 more rows

The group_by function splits the tibble into parts – in the above case, by country. Notice the “Groups” indicator in the following output:

group_by(gapminder, continent, country, year < 1970)

## # A tibble: 1,704 x 7
## # Groups:   continent, country, year < 1970 [284]
##    country     continent  year lifeExp      pop gdpPercap `year < 1970`
##    <fct>       <fct>     <int>   <dbl>    <int>     <dbl> <lgl>        
##  1 Afghanistan Asia       1952    28.8  8425333      779. TRUE         
##  2 Afghanistan Asia       1957    30.3  9240934      821. TRUE         
##  3 Afghanistan Asia       1962    32.0 10267083      853. TRUE         
##  4 Afghanistan Asia       1967    34.0 11537966      836. TRUE         
##  5 Afghanistan Asia       1972    36.1 13079460      740. FALSE        
##  6 Afghanistan Asia       1977    38.4 14880372      786. FALSE        
##  7 Afghanistan Asia       1982    39.9 12881816      978. FALSE        
##  8 Afghanistan Asia       1987    40.8 13867957      852. FALSE        
##  9 Afghanistan Asia       1992    41.7 16317921      649. FALSE        
## 10 Afghanistan Asia       1997    41.8 22227415      635. FALSE        
## # … with 1,694 more rows

Let’s get a summary of this grouping:

(out1 <- gapminder %>% 
    group_by(continent, country, year < 1970) %>% 
    summarize(mean_pop=mean(pop), sd_pop=sd(pop)))

## # A tibble: 284 x 5
## # Groups:   continent, country [142]
##    continent country      `year < 1970`  mean_pop   sd_pop
##    <fct>     <fct>        <lgl>             <dbl>    <dbl>
##  1 Africa    Algeria      FALSE         24399131. 6745137.
##  2 Africa    Algeria      TRUE          10827957  1468860.
##  3 Africa    Angola       FALSE          8605718. 2319733.
##  4 Africa    Angola       TRUE           4716735   429200.
##  5 Africa    Benin        FALSE          4995905. 1908684.
##  6 Africa    Benin        TRUE           2060679.  297230.
##  7 Africa    Botswana     FALSE          1208873.  392509.
##  8 Africa    Botswana     TRUE            495813    48066.
##  9 Africa    Burkina Faso FALSE          8919146. 3178418.
## 10 Africa    Burkina Faso TRUE           4807740.  281676.
## # … with 274 more rows

Note that the output is still a tibble, but one “layer” of grouping has been peeled back: the year < 1970 variable. summarize again and you’ll see that the tibble was no longer grouped by year < 1970.

out1 %>% 
    summarize(mean_pop=mean(mean_pop))

## # A tibble: 142 x 3
## # Groups:   continent [5]
##    continent country                   mean_pop
##    <fct>     <fct>                        <dbl>
##  1 Africa    Algeria                  17613544.
##  2 Africa    Angola                    6661226.
##  3 Africa    Benin                     3528292.
##  4 Africa    Botswana                   852343.
##  5 Africa    Burkina Faso              6863443.
##  6 Africa    Burundi                   4201584.
##  7 Africa    Cameroon                  8768619.
##  8 Africa    Central African Republic  2292041.
##  9 Africa    Chad                      4760924.
## 10 Africa    Comoros                    317134.
## # … with 132 more rows

Exercise: Find the minimum GDP per capita experienced by each country

gapminder %>%
    group_by(country) %>% 
    summarize(mingdp=min(gdpPercap))

## # A tibble: 142 x 2
##    country     mingdp
##    <fct>        <dbl>
##  1 Afghanistan   635.
##  2 Albania      1601.
##  3 Algeria      2449.
##  4 Angola       2277.
##  5 Argentina    5911.
##  6 Australia   10040.
##  7 Austria      6137.
##  8 Bahrain      9867.
##  9 Bangladesh    630.
## 10 Belgium      8343.
## # … with 132 more rows

Exercise: How many years of record does each country have?

gapminder %>%
    group_by(country) %>% 
    summarize(n_distinct(year))

## # A tibble: 142 x 2
##    country     `n_distinct(year)`
##    <fct>                    <int>
##  1 Afghanistan                 12
##  2 Albania                     12
##  3 Algeria                     12
##  4 Angola                      12
##  5 Argentina                   12
##  6 Australia                   12
##  7 Austria                     12
##  8 Bahrain                     12
##  9 Bangladesh                  12
## 10 Belgium                     12
## # … with 132 more rows
…
