…
Well, we can also apply mutate to each group, too. For example, let's calculate the growth in population since the first year on record for each country:

gapminder %>% 
    group_by(country) %>% 
    mutate(pop_growth = pop - pop[1])

## # A tibble: 1,704 x 7
## # Groups:   country [142]
##        country continent  year lifeExp      pop gdpPercap pop_growth
##         <fctr>    <fctr> <int>   <dbl>    <int>     <dbl>      <int>
##  1 Afghanistan      Asia  1952  28.801  8425333  779.4453          0
##  2 Afghanistan      Asia  1957  30.332  9240934  820.8530     815601
##  3 Afghanistan      Asia  1962  31.997 10267083  853.1007    1841750
##  4 Afghanistan      Asia  1967  34.020 11537966  836.1971    3112633
##  5 Afghanistan      Asia  1972  36.088 13079460  739.9811    4654127
##  6 Afghanistan      Asia  1977  38.438 14880372  786.1134    6455039
##  7 Afghanistan      Asia  1982  39.854 12881816  978.0114    4456483
##  8 Afghanistan      Asia  1987  40.822 13867957  852.3959    5442624
##  9 Afghanistan      Asia  1992  41.674 16317921  649.3414    7892588
## 10 Afghanistan      Asia  1997  41.763 22227415  635.3414   13802082
## # ... with 1,694 more rows

Notice that dplyr has retained the original grouping -- it hasn't pealed back one level of grouping. That's because there's still more than one row for each group!

How about growth compared to 1972?

gapminder %>% 
    group_by(country) %>% 
    mutate(pop_growth = pop - pop[year==1972])

## # A tibble: 1,704 x 7
## # Groups:   country [142]
##        country continent  year lifeExp      pop gdpPercap pop_growth
##         <fctr>    <fctr> <int>   <dbl>    <int>     <dbl>      <int>
##  1 Afghanistan      Asia  1952  28.801  8425333  779.4453   -4654127
##  2 Afghanistan      Asia  1957  30.332  9240934  820.8530   -3838526
##  3 Afghanistan      Asia  1962  31.997 10267083  853.1007   -2812377
##  4 Afghanistan      Asia  1967  34.020 11537966  836.1971   -1541494
##  5 Afghanistan      Asia  1972  36.088 13079460  739.9811          0
##  6 Afghanistan      Asia  1977  38.438 14880372  786.1134    1800912
##  7 Afghanistan      Asia  1982  39.854 12881816  978.0114    -197644
##  8 Afghanistan      Asia  1987  40.822 13867957  852.3959     788497
##  9 Afghanistan      Asia  1992  41.674 16317921  649.3414    3238461
## 10 Afghanistan      Asia  1997  41.763 22227415  635.3414    9147955
## # ... with 1,694 more rows
…
Practice these concepts in the following exercises.

Exercise 1: Suppose we want to calculate some quantity for each country in the gapminder data set. For each of the following quantities, indicate whether the function is vectorized, aggregate, or window, and use dplyr functions to calculate the specified variable.

The change in population from 1962 to 1972.

## It's an Aggregate function.
gapminder %>% 
    filter(year %in% c(1962, 1972)) %>% 
    arrange(year) %>% 
    group_by(country) %>% 
    summarize(pop_chg=diff(pop))

## # A tibble: 142 x 2
##        country  pop_chg
##         <fctr>    <int>
##  1 Afghanistan  2812377
##  2     Albania   535417
##  3     Algeria  3759839
##  4      Angola  1068843
##  5   Argentina  3496016
##  6   Australia  2382032
##  7     Austria   414337
##  8     Bahrain    58937
##  9  Bangladesh 13920006
## 10     Belgium   490700
## # ... with 132 more rows

gapminder %>% 
    group_by(country) %>% 
    summarise(pop_chg=pop[year==1972]-pop[year==1962])

## # A tibble: 142 x 2
##        country  pop_chg
##         <fctr>    <int>
##  1 Afghanistan  2812377
##  2     Albania   535417
##  3     Algeria  3759839
##  4      Angola  1068843
##  5   Argentina  3496016
##  6   Australia  2382032
##  7     Austria   414337
##  8     Bahrain    58937
##  9  Bangladesh 13920006
## 10     Belgium   490700
## # ... with 132 more rows

The population, in billions.

## It's a vectorized function.
gapminder %>%
    mutate(pop_in_bill = pop/10^9)

## # A tibble: 1,704 x 7
##        country continent  year lifeExp      pop gdpPercap pop_in_bill
##         <fctr>    <fctr> <int>   <dbl>    <int>     <dbl>       <dbl>
##  1 Afghanistan      Asia  1952  28.801  8425333  779.4453 0.008425333
##  2 Afghanistan      Asia  1957  30.332  9240934  820.8530 0.009240934
##  3 Afghanistan      Asia  1962  31.997 10267083  853.1007 0.010267083
##  4 Afghanistan      Asia  1967  34.020 11537966  836.1971 0.011537966
##  5 Afghanistan      Asia  1972  36.088 13079460  739.9811 0.013079460
##  6 Afghanistan      Asia  1977  38.438 14880372  786.1134 0.014880372
##  7 Afghanistan      Asia  1982  39.854 12881816  978.0114 0.012881816
##  8 Afghanistan      Asia  1987  40.822 13867957  852.3959 0.013867957
##  9 Afghanistan      Asia  1992  41.674 16317921  649.3414 0.016317921
## 10 Afghanistan      Asia  1997  41.763 22227415  635.3414 0.022227415
## # ... with 1,694 more rows

The lagged gdpPercap

i.e., the value that appears for 1962 would be the gdpPercap in 1957 (the previous entry).

Hint: use the lag function, then filter out the NA's created with the is.na function.

## It's a window function.
gapminder %>% 
    group_by(country) %>% 
    arrange(year) %>% 
    mutate(lag_gdpPercap=lag(gdpPercap)) %>% 
    filter(!is.na(lag_gdpPercap))

## # A tibble: 1,562 x 7
## # Groups:   country [142]
##        country continent  year lifeExp      pop  gdpPercap lag_gdpPercap
##         <fctr>    <fctr> <int>   <dbl>    <int>      <dbl>         <dbl>
##  1 Afghanistan      Asia  1957  30.332  9240934   820.8530      779.4453
##  2     Albania    Europe  1957  59.280  1476505  1942.2842     1601.0561
##  3     Algeria    Africa  1957  45.685 10270856  3013.9760     2449.0082
##  4      Angola    Africa  1957  31.999  4561361  3827.9405     3520.6103
##  5   Argentina  Americas  1957  64.399 19610538  6856.8562     5911.3151
##  6   Australia   Oceania  1957  70.330  9712569 10949.6496    10039.5956
##  7     Austria    Europe  1957  67.480  6965860  8842.5980     6137.0765
##  8     Bahrain      Asia  1957  53.832   138655 11635.7995     9867.0848
##  9  Bangladesh      Asia  1957  39.348 51365468   661.6375      684.2442
## 10     Belgium    Europe  1957  69.240  8989111  9714.9606     8343.1051
## # ... with 1,552 more rows
…
